<svg class="lds-message" width="200px"  height="200px"  xmlns="http://www.w3.org/2000/svg" xmlns:xlink="http://www.w3.org/1999/xlink" viewBox="0 0 100 100" preserveAspectRatio="xMidYMid" style="background: none;"><g transform="translate(20 50)">
<circle cx="0" cy="0" r="6" fill="#337ab7" transform="scale(0.0228733 0.0228733)">
  <animateTransform attributeName="transform" type="scale" begin="-0.375s" calcMode="spline" keySplines="0.3 0 0.7 1;0.3 0 0.7 1" values="0;1;0" keyTimes="0;0.5;1" dur="1s" repeatCount="indefinite"></animateTransform>
</circle>
</g><g transform="translate(40 50)">
<circle cx="0" cy="0" r="6" fill="#5bc0de" transform="scale(0.268868 0.268868)">
  <animateTransform attributeName="transform" type="scale" begin="-0.25s" calcMode="spline" keySplines="0.3 0 0.7 1;0.3 0 0.7 1" values="0;1;0" keyTimes="0;0.5;1" dur="1s" repeatCount="indefinite"></animateTransform>
</circle>
</g><g transform="translate(60 50)">
<circle cx="0" cy="0" r="6" fill="#5cb85c" transform="scale(0.623843 0.623843)">
  <animateTransform attributeName="transform" type="scale" begin="-0.125s" calcMode="spline" keySplines="0.3 0 0.7 1;0.3 0 0.7 1" values="0;1;0" keyTimes="0;0.5;1" dur="1s" repeatCount="indefinite"></animateTransform>
</circle>
</g><g transform="translate(80 50)">
<circle cx="0" cy="0" r="6" fill="#f0ad4e" transform="scale(0.917903 0.917903)">
  <animateTransform attributeName="transform" type="scale" begin="0s" calcMode="spline" keySplines="0.3 0 0.7 1;0.3 0 0.7 1" values="0;1;0" keyTimes="0;0.5;1" dur="1s" repeatCount="indefinite"></animateTransform>
</circle>
</g></svg>